Linear Regression - Part 1
…
We can see that by modeling price with carat, we have removed the variation in price that can be explained by carat, and the leftover variation shows a sensible relationship with the categorical variables cut, color, and clarity.

Categorical variables and linear regression

Using categorical variables requires some special care that is handled automatically by R, but must be considered when intepretting model coefficients.

Consider the following simulated data:

sim2

## # A tibble: 40 x 2
##    x          y
##    <chr>  <dbl>
##  1 a      1.94 
##  2 a      1.18 
##  3 a      1.24 
##  4 a      2.62 
##  5 a      1.11 
##  6 a      0.866
##  7 a     -0.910
##  8 a      0.721
##  9 a      0.687
## 10 a      2.07 
## # ... with 30 more rows
…
Linear models use indicator variables to model categorical predictors.

Each indicator variable is 0 or 1, where 1 indicates that the value of the categorical variable for that observation is equal to the level of the indicator variable.

model_matrix(sim2, y ~ x)

## # A tibble: 40 x 4
##    `(Intercept)`    xb    xc    xd
##            <dbl> <dbl> <dbl> <dbl>
##  1             1     0     0     0
##  2             1     0     0     0
##  3             1     0     0     0
##  4             1     0     0     0
##  5             1     0     0     0
##  6             1     0     0     0
##  7             1     0     0     0
##  8             1     0     0     0
##  9             1     0     0     0
## 10             1     0     0     0
## # ... with 30 more rows
…
