Linear Regression - Part 2
…
## Warning: package 'modelr' was built under R version 4.0.2

set.seed(1)
diamonds10k <- diamonds %>%
  sample_n(10000) %>%
  mutate(cut_ord = cut,
         color_ord = forcats::fct_relevel(color, rev(levels(color))),
         clarity_ord = clarity,
         cut = as.character(cut_ord),
         color = as.character(color_ord),
         clarity = as.character(clarity_ord))

diamonds10k

## # A tibble: 10,000 x 13
##    carat cut       color clarity depth table price     x     y     z cut_ord  
##    <dbl> <chr>     <chr> <chr>   <dbl> <dbl> <int> <dbl> <dbl> <dbl> <ord>    
##  1  0.41 Very Good D     SI2      62.3    61   638  4.72  4.75  2.95 Very Good
##  2  0.5  Very Good F     VS2      62.8    57  1402  5.05  5.08  3.18 Very Good
##  3  1.03 Fair      I     SI2      65.2    56  3530  6.42  6.35  4.16 Fair     
##  4  1.1  Ideal     I     SI1      62.1    57  5037  6.6   6.64  4.11 Ideal    
##  5  1.51 Very Good E     VS2      63.3    61 13757  7.24  7.17  4.56 Very Good
##  6  0.3  Ideal     H     VS2      62.1    55   457  4.3   4.33  2.68 Ideal    
##  7  0.87 Premium   J     SI1      61.4    57  2321  6.17  6.14  3.78 Premium  
##  8  1.05 Very Good H     VS1      63.3    57  5657  6.45  6.4   4.07 Very Good
##  9  1    Good      F     SI1      64      57  4372  6.29  6.33  4.04 Good     
## 10  2.01 Good      I     SI1      63.8    57 13976  7.95  7.91  5.06 Good     
## # ... with 9,990 more rows, and 2 more variables: color_ord <ord>,
## #   clarity_ord <ord>
…
